…
anly
#> # A tibble: 35 x 6
#>    impute k_neighbors aggr_fun  training           testing            bscor
#>     <int>       <int> <chr>     <list>             <list>             <dbl>
#>  1      1           1 mean_mode <tibble [3,030 x ~ <tibble [1,009 x ~ 0.225
#>  2      2           2 mean_mode <tibble [3,030 x ~ <tibble [1,009 x ~ 0.242
#>  3      3           3 mean_mode <tibble [3,030 x ~ <tibble [1,009 x ~ 0.248
#>  4      4           4 mean_mode <tibble [3,030 x ~ <tibble [1,009 x ~ 0.245
#>  5      5           5 mean_mode <tibble [3,030 x ~ <tibble [1,009 x ~ 0.252
#>  6      6           6 mean_mode <tibble [3,030 x ~ <tibble [1,009 x ~ 0.252
#>  7      7           7 mean_mode <tibble [3,030 x ~ <tibble [1,009 x ~ 0.254
#>  8      8           8 mean_mode <tibble [3,030 x ~ <tibble [1,009 x ~ 0.244
#>  9      9           9 mean_mode <tibble [3,030 x ~ <tibble [1,009 x ~ 0.262
#> 10     10          10 mean_mode <tibble [3,030 x ~ <tibble [1,009 x ~ 0.250
#> # ... with 25 more rows
```
…
