Imputation for Predictive Analytics • ipa
…
nbrs_brew
#> A <U+0001F37A> to handle missing data using k-nearest-neighbors. 
#> # A tibble: 35 x 3
#>    impute pars             training           
#>     <int> <list>           <list>             
#>  1      1 <named list [1]> <tibble [366 x 14]>
#>  2      2 <named list [1]> <tibble [366 x 14]>
#>  3      3 <named list [1]> <tibble [366 x 14]>
#>  4      4 <named list [1]> <tibble [366 x 14]>
#>  5      5 <named list [1]> <tibble [366 x 14]>
#>  6      6 <named list [1]> <tibble [366 x 14]>
#>  7      7 <named list [1]> <tibble [366 x 14]>
#>  8      8 <named list [1]> <tibble [366 x 14]>
#>  9      9 <named list [1]> <tibble [366 x 14]>
#> 10     10 <named list [1]> <tibble [366 x 14]>
#> # ... with 25 more rows
…
