Getting started with `ipa` • ipa
…
# save the vector of beta coefficients
betas <- sim[1]
data <- sim[2:3]

print(data)
#> $training
#> # A tibble: 5,000 x 51
#>    response     x1      x2     x3      x4      x5     x6     x7     x8
#>       <dbl>  <dbl>   <dbl>  <dbl>   <dbl>   <dbl>  <dbl>  <dbl>  <dbl>
#>  1  -0.0898 -0.646 NA       0.491  0.492  NA      NA     -1.35  NA    
#>  2   0.715   0.684  0.0149  1.39  NA       0.509  -0.958 NA     -1.70 
#>  3   0.610  -0.754  0.380   0.820  0.875  -0.216  -1.28  -2.14  -0.773
#>  4   0.358  -0.124 -0.461   0.294 NA      -0.990  -0.595 NA     NA    
#>  5   0.137  NA      0.372  NA      0.710  NA      NA     -0.277 -0.304
#>  6  -0.388  -0.658 -0.205  -1.31  -1.54   -1.69   -1.24   0.493  1.03 
#>  7   0.916  -0.235 -0.297   0.773  1.58    0.0585 -0.722 -1.31  -1.77 
#>  8  -0.297   0.708  1.29    1.29   1.53   -0.255   0.761  0.765 -0.285
#>  9  -0.545   0.721 NA      -0.810  0.101  NA      NA     -1.24  NA    
#> 10  -0.240  NA     -1.61   NA     -0.0528 NA      NA     -0.510 -0.880
#> # ... with 4,990 more rows, and 42 more variables: x9 <dbl>, x10 <dbl>,
#> #   x11 <dbl>, x12 <dbl>, x13 <dbl>, x14 <dbl>, x15 <dbl>, x16 <dbl>,
#> #   x17 <dbl>, x18 <dbl>, x19 <dbl>, x20 <dbl>, x21 <dbl>, x22 <dbl>,
#> #   x23 <dbl>, x24 <dbl>, x25 <dbl>, x26 <dbl>, x27 <dbl>, x28 <dbl>,
#> #   x29 <dbl>, x30 <dbl>, x31 <dbl>, x32 <dbl>, x33 <dbl>, x34 <dbl>,
#> #   x35 <dbl>, x36 <dbl>, x37 <dbl>, x38 <dbl>, x39 <dbl>, x40 <dbl>,
#> #   x41 <dbl>, x42 <dbl>, x43 <dbl>, x44 <dbl>, x45 <dbl>, x46 <dbl>,
#> #   x47 <dbl>, x48 <dbl>, x49 <dbl>, x50 <dbl>
#> 
#> $testing
#> # A tibble: 95,000 x 51
#>    response     x1     x2      x3    x4      x5     x6      x7      x8
#>       <dbl>  <dbl>  <dbl>   <dbl> <dbl>   <dbl>  <dbl>   <dbl>   <dbl>
#>  1  -0.0879 -0.903 -1.29  -1.11   0.264  0.484   0.395  0.776   0.963 
#>  2  -0.408   1.79   0.338 -0.227  0.570 -0.121  -0.479  0.328   0.368 
#>  3  -0.450  -0.734 -0.835  1.03   0.316  0.647  -0.614 -0.296  -1.36  
#>  4   0.414   1.24   1.69   0.886  1.37  -0.218   1.48   0.0870  0.782 
#>  5   0.128   1.31   2.14   1.19   0.134  1.33    1.73   1.37   -0.201 
#>  6  -0.419  -0.292 -0.505 -0.0426 0.150 -0.853  -0.961  0.0218  0.806 
#>  7   0.316  -0.544 -0.188  0.227  0.496  1.54    0.963  0.215   0.0687
#>  8   0.0231  2.20   1.83   0.848  1.27   1.93   -0.175 -0.0720  0.558 
#>  9   0.0744  1.12   1.72   1.70   0.582 -0.0269  0.209 -0.530  -0.848 
#> 10   0.451   0.372 -1.66   0.150  0.877  0.274  -0.646  0.252   0.793 
#> # ... with 94,990 more rows, and 42 more variables: x9 <dbl>, x10 <dbl>,
#> #   x11 <dbl>, x12 <dbl>, x13 <dbl>, x14 <dbl>, x15 <dbl>, x16 <dbl>,
#> #   x17 <dbl>, x18 <dbl>, x19 <dbl>, x20 <dbl>, x21 <dbl>, x22 <dbl>,
#> #   x23 <dbl>, x24 <dbl>, x25 <dbl>, x26 <dbl>, x27 <dbl>, x28 <dbl>,
#> #   x29 <dbl>, x30 <dbl>, x31 <dbl>, x32 <dbl>, x33 <dbl>, x34 <dbl>,
#> #   x35 <dbl>, x36 <dbl>, x37 <dbl>, x38 <dbl>, x39 <dbl>, x40 <dbl>,
#> #   x41 <dbl>, x42 <dbl>, x43 <dbl>, x44 <dbl>, x45 <dbl>, x46 <dbl>,
#> #   x47 <dbl>, x48 <dbl>, x49 <dbl>, x50 <dbl>
…
soft imputation is a method based on singular value decomposition of a matrix. We will use the softImpute algorithm to brew a set of 20 imputed datasets with varying degrees of regularization.

Brew

When you start a brew, an object is initiated with an empty list containing meta data about your missing data strategy.

brew_sft <- data$training %>% 
  brew(outcome = response, flavor = 'softImpute')

brew_sft
#> A <U+0001F37A> to handle missing data using soft imputation. 
#> 
#> Data used for imputation (outcomes are wittheld): 
#> 
#> # A tibble: 5,000 x 50
#>        x1      x2     x3      x4      x5     x6     x7     x8      x9
#>     <dbl>   <dbl>  <dbl>   <dbl>   <dbl>  <dbl>  <dbl>  <dbl>   <dbl>
#>  1 -0.646 NA       0.491  0.492  NA      NA     -1.35  NA     -0.259 
#>  2  0.684  0.0149  1.39  NA       0.509  -0.958 NA     -1.70  -0.0839
#>  3 -0.754  0.380   0.820  0.875  -0.216  -1.28  -2.14  -0.773 -0.862 
#>  4 -0.124 -0.461   0.294 NA      -0.990  -0.595 NA     NA     NA     
#>  5 NA      0.372  NA      0.710  NA      NA     -0.277 -0.304 -0.285 
#>  6 -0.658 -0.205  -1.31  -1.54   -1.69   -1.24   0.493  1.03   0.663 
#>  7 -0.235 -0.297   0.773  1.58    0.0585 -0.722 -1.31  -1.77  -1.47  
#>  8  0.708  1.29    1.29   1.53   -0.255   0.761  0.765 -0.285 -0.473 
#>  9  0.721 NA      -0.810  0.101  NA      NA     -1.24  NA      0.351 
#> 10 NA     -1.61   NA     -0.0528 NA      NA     -0.510 -0.880 -0.394 
#> # ... with 4,990 more rows, and 41 more variables: x10 <dbl>, x11 <dbl>,
#> #   x12 <dbl>, x13 <dbl>, x14 <dbl>, x15 <dbl>, x16 <dbl>, x17 <dbl>,
#> #   x18 <dbl>, x19 <dbl>, x20 <dbl>, x21 <dbl>, x22 <dbl>, x23 <dbl>,
#> #   x24 <dbl>, x25 <dbl>, x26 <dbl>, x27 <dbl>, x28 <dbl>, x29 <dbl>,
#> #   x30 <dbl>, x31 <dbl>, x32 <dbl>, x33 <dbl>, x34 <dbl>, x35 <dbl>,
#> #   x36 <dbl>, x37 <dbl>, x38 <dbl>, x39 <dbl>, x40 <dbl>, x41 <dbl>,
#> #   x42 <dbl>, x43 <dbl>, x44 <dbl>, x45 <dbl>, x46 <dbl>, x47 <dbl>,
#> #   x48 <dbl>, x49 <dbl>, x50 <dbl>
…
The ipa_brew object’s wort will be filled with imputation models (i.e., the column called fit) after the mash is complete!

brew_sft$wort
#> # A tibble: 24 x 4
#>    impute lambda  rank fit             
#>     <int>  <dbl> <int> <list>          
#>  1      1   91.1     5 <named list [3]>
#>  2      2   87.1     6 <named list [3]>
#>  3      3   83.2     8 <named list [3]>
#>  4      4   79.3     9 <named list [3]>
#>  5      5   75.4    10 <named list [3]>
#>  6      6   71.5    11 <named list [3]>
#>  7      7   67.6    13 <named list [3]>
#>  8      8   63.6    15 <named list [3]>
#>  9      9   59.7    16 <named list [3]>
#> 10     10   55.8    18 <named list [3]>
#> # ... with 14 more rows
…
Missing values can occur in the training data, testing data, and validation data. An important requirement for missing value strategies is that only information from the training data should be used to impute missing data.

Unfortunately, some imputation strategies are not designed to work this way! For example, softImpute imputes missing values based on the index of the missing value in the training data, and this doesn’t generalize to testing data because testing data (by definition) are not in the training data.

Fortunately, ferment gives you options. For example, you can use softImpute to impute missing training data, and then use kneighbors to impute the testing data by matching the testing observations to their nearest neighbors in the training data. More specifically, you can tell ferment to impute the testing data using either the original unimputed training data or using each of the imputed training datasets, separately. The same options apply for all ipa_brew objects.

However, in this case, there are no missing values in the testing data, so we don’t need to rely on these tricks.

The ... argument in ferment lets you supply a dataset paired with a name. The dataset you supply will get imputed, and the name you give it will appear as the column name of the imputed sets in the wort. For example,

brew_sft <- ferment(brew_sft, testing = data$testing)
#> No missing values in testing - nothing to impute.

brew_sft$wort
#> # A tibble: 24 x 6
#>    impute lambda  rank fit            training           testing           
#>     <int>  <dbl> <int> <list>         <list>             <list>            
#>  1      1   91.1     5 <named list [~ <tibble [5,000 x ~ <tibble [95,000 x~
#>  2      2   87.1     6 <named list [~ <tibble [5,000 x ~ <tibble [95,000 x~
#>  3      3   83.2     8 <named list [~ <tibble [5,000 x ~ <tibble [95,000 x~
#>  4      4   79.3     9 <named list [~ <tibble [5,000 x ~ <tibble [95,000 x~
#>  5      5   75.4    10 <named list [~ <tibble [5,000 x ~ <tibble [95,000 x~
#>  6      6   71.5    11 <named list [~ <tibble [5,000 x ~ <tibble [95,000 x~
#>  7      7   67.6    13 <named list [~ <tibble [5,000 x ~ <tibble [95,000 x~
#>  8      8   63.6    15 <named list [~ <tibble [5,000 x ~ <tibble [95,000 x~
#>  9      9   59.7    16 <named list [~ <tibble [5,000 x ~ <tibble [95,000 x~
#> 10     10   55.8    18 <named list [~ <tibble [5,000 x ~ <tibble [95,000 x~
#> # ... with 14 more rows

Bottle

Once everything is imputed, your brew is ready to be bottled. You can choose whether you’d prefer to get the data back in the form of a tibble or matrix.

brew_sft <- bottle(brew_sft, type = 'tibble')

brew_sft
#> # A tibble: 24 x 5
#>    impute lambda  rank training              testing               
#>     <int>  <dbl> <int> <list>                <list>                
#>  1      1   91.1     5 <tibble [5,000 x 51]> <tibble [95,000 x 51]>
#>  2      2   87.1     6 <tibble [5,000 x 51]> <tibble [95,000 x 51]>
#>  3      3   83.2     8 <tibble [5,000 x 51]> <tibble [95,000 x 51]>
#>  4      4   79.3     9 <tibble [5,000 x 51]> <tibble [95,000 x 51]>
#>  5      5   75.4    10 <tibble [5,000 x 51]> <tibble [95,000 x 51]>
#>  6      6   71.5    11 <tibble [5,000 x 51]> <tibble [95,000 x 51]>
#>  7      7   67.6    13 <tibble [5,000 x 51]> <tibble [95,000 x 51]>
#>  8      8   63.6    15 <tibble [5,000 x 51]> <tibble [95,000 x 51]>
#>  9      9   59.7    16 <tibble [5,000 x 51]> <tibble [95,000 x 51]>
#> 10     10   55.8    18 <tibble [5,000 x 51]> <tibble [95,000 x 51]>
#> # ... with 14 more rows
…
