scoring_imputes • ipa
…
Save the scores as a tibble outside of the brew so that they are easier to analyze.

# unnest_wider sub
# set(j = .col, value = sapply(.$pars, function(x) x[[.col]]))

impute_accuracy <- sft_brew %>% 
  pluck('wort') %>%
  as_tibble() %>% 
  unnest_wider(col = pars) %>% 
  select(lambda, rank_fit, training_score) %>% 
  unnest(cols = training_score)

impute_accuracy
#> # A tibble: 800 x 5
#>    lambda rank_fit variable     type     score
#>     <dbl>    <dbl> <chr>        <chr>    <dbl>
#>  1   46.8        2 Sale_Price   ctns  NA      
#>  2   46.8        2 MS_SubClass  catg   0.0161 
#>  3   46.8        2 MS_Zoning    catg   0      
#>  4   46.8        2 Lot_Frontage ctns   0.00670
#>  5   46.8        2 Lot_Area     intg   0.00295
#>  6   46.8        2 Street       bnry   0      
#>  7   46.8        2 Alley        catg   0      
#>  8   46.8        2 Lot_Shape    catg   0.0416 
#>  9   46.8        2 Land_Contour catg   0      
#> 10   46.8        2 Lot_Config   catg  -0.00207
#> # ... with 790 more rows
…
